[
  "hellhole/drains.lev",
  "hellhole/dropzone_1.lev",
  "hellhole/2Forts.lev",
  "hellhole/5pipe.lev",
  "hellhole/ANT HILL.LEV",
  "hellhole/ANTS1.LEV",
  "hellhole/Afterlife.lev",
  "hellhole/AirForce.lev",
  "hellhole/Alley.lev",
  "hellhole/Area51.lev",
  "hellhole/Assault.lev",
  "hellhole/BGrock.lev",
  "hellhole/BIN LADE.LEV",
  "hellhole/BOMBARD.LEV",
  "hellhole/BORDOM.LEV",
  "hellhole/BOWSERPL.LEV",
  "hellhole/BellCity.lev",
  "hellhole/BellFun.lev",
  "hellhole/Big X.lev",
  "hellhole/BigCity.lev",
  "hellhole/Bizzare.lev",
  "hellhole/Blades Liero Resort.lev",
  "hellhole/Bubbles.lev",
  "hellhole/Building.lev",
  "hellhole/CS HardCore.lev",
  "hellhole/CTF - Red October.lev",
  "hellhole/Carvings.LEV",
  "hellhole/CastV2.lev",
  "hellhole/Castle2.lev",
  "hellhole/Chook Arena.lev",
  "hellhole/Chump.lev",
  "hellhole/City Assualt.lev",
  "hellhole/Computer.lev",
  "hellhole/D-day.lev",
  "hellhole/D11base.lev",
  "hellhole/Dog.lev",
  "hellhole/FREE.LEV",
  "hellhole/FURUKEL.LEV",
  "hellhole/Flojo.lev",
  "hellhole/Follow the White Rabbit.lev",
  "hellhole/Fort1.lev",
  "hellhole/Fortress_2.lev",
  "hellhole/GMT3beta32.lev",
  "hellhole/GreyUFO.lev",
  "hellhole/HiddenCove.lev",
  "hellhole/Hive.lev",
  "hellhole/House.lev",
  "hellhole/IMLOST.LEV",
  "hellhole/JANNU.LEV",
  "hellhole/JANNU133.LEV",
  "hellhole/JUSSI999.LEV",
  "hellhole/Jee.lev",
  "hellhole/Krig.lev",
  "hellhole/LAB!.lev",
  "hellhole/LABRATH.LEV",
  "hellhole/Leaking.lev",
  "hellhole/Lightning volcano.lev",
  "hellhole/Lines_1.lev",
  "hellhole/Lost.lev",
  "hellhole/MY HOUSES.LEV",
  "hellhole/MarioLnd.lev",
  "hellhole/Maze2.lev",
  "hellhole/Maze_1.lev",
  "hellhole/Maze_2.lev",
  "hellhole/Mission.lev",
  "hellhole/Nukecore.lev",
  "hellhole/PERFECT.LEV",
  "hellhole/PaakALLO.LEV",
  "hellhole/Phantosams castle.lev",
  "hellhole/Port.lev",
  "hellhole/ROCKDUDE.LEV",
  "hellhole/Rescue thoos hostage.lev",
  "hellhole/Roburky1.lev",
  "hellhole/RockCity.lev",
  "hellhole/Rock_1.lev",
  "hellhole/S.LEV",
  "hellhole/Snow.lev",
  "hellhole/Street.lev",
  "hellhole/Stripes.lev",
  "hellhole/TOXIC.LEV",
  "hellhole/TRICKYCL.LEV",
  "hellhole/TUNNELS_2.lev",
  "hellhole/TechnoForts.lev",
  "hellhole/TerriostScum.lev",
  "hellhole/TheCave.lev",
  "hellhole/Tiger's Warzone.lev",
  "hellhole/TooMuch.lev",
  "hellhole/Train.lev",
  "hellhole/Training.lev",
  "hellhole/Transit.lev",
  "hellhole/UA-PARK.LEV",
  "hellhole/UA-STREETS.LEV",
  "hellhole/UH OH OH.LEV",
  "hellhole/VAINU.LEV",
  "hellhole/VILLE.LEV",
  "hellhole/Vault city.LEV",
  "hellhole/Volcano_3.lev",
  "hellhole/Water System.lev",
  "hellhole/X-treme Forts.lev",
  "hellhole/Xvz.lev",
  "hellhole/aaa.lev",
  "hellhole/aftermath.lev",
  "hellhole/bloodprk.lev",
  "hellhole/bones.lev",
  "hellhole/boxwar.lev",
  "hellhole/butterfly.lev",
  "hellhole/casino final.lev",
  "hellhole/castle.lev",
  "hellhole/castle_4.lev",
  "hellhole/caves of doom.lev",
  "hellhole/cells.lev",
  "hellhole/conduit.lev",
  "hellhole/contruction.lev",
  "hellhole/cool.lev",
  "hellhole/dcastle.lev",
  "hellhole/deck18.lev",
  "hellhole/derek1.lev",
  "hellhole/derek2.lev",
  "hellhole/destroy2.lev",
  "hellhole/doublebase.lev",
  "hellhole/dump.lev",
  "hellhole/dump2.lev",
  "hellhole/fools.lev",
  "hellhole/gigaworm.lev",
  "hellhole/heaven.lev",
  "hellhole/hell_2.lev",
  "hellhole/hubba.lev",
  "hellhole/kgivler4.lev",
  "hellhole/kgivler6.lev",
  "hellhole/kors.lev",
  "hellhole/kyle4.lev",
  "hellhole/little town.lev",
  "hellhole/oneside.lev",
  "hellhole/onlyoneway.lev",
  "hellhole/rally.lev",
  "hellhole/redmonster.lev",
  "hellhole/redrock.lev",
  "hellhole/scuba.lev",
  "hellhole/silo attack.lev",
  "hellhole/snigel.lev",
  "hellhole/sokkelo.lev",
  "hellhole/spacestation.lev",
  "hellhole/spring.lev",
  "hellhole/tower_1.lev",
  "hellhole/towerwar.lev",
  "hellhole/tri fort.lev",
  "hellhole/two buildings.lev",
  "hellhole/u96.lev",
  "hellhole/war.lev",
  "hellhole/AirCastleZ.lev",
  "hellhole/Lost Base.lev",
  "hellhole/Mines.lev",
  "hellhole/fun.lev",
  "hellhole/Cross Walls.lev",
  "hellhole/Elegant.lev",
  "hellhole/ZIMM.LEV",
  "hellhole/bunnycat.lev",
  "hellhole/crazy_1.lev",
  "hellhole/death.lev",
  "hellhole/jungle2.lev",
  "hellhole/king.lev",
  "hellhole/$MUMEY$.LEV",
  "hellhole/007.lev",
  "hellhole/2BASES.LEV",
  "hellhole/@AT@.LEV",
  "hellhole/Ak22.lev",
  "hellhole/BATTLEDM.LEV",
  "hellhole/BIGHOUSE.LEV",
  "hellhole/Block.lev",
  "hellhole/CASTLE_1.LEV",
  "hellhole/CTFArena_1.lev",
  "hellhole/CVICISTE.LEV",
  "hellhole/Carnival.lev",
  "hellhole/Chaos I.LEV",
  "hellhole/Church.lev",
  "hellhole/City.lev",
  "hellhole/Commando.lev",
  "hellhole/DIRTFACT.LEV",
  "hellhole/DIRTHOLE.LEV",
  "hellhole/Elevate.lev",
  "hellhole/FORTFAN.LEV",
  "hellhole/Fallout.lev",
  "hellhole/Fight Eyes.lev",
  "hellhole/Forest.lev",
  "hellhole/GreyFort.lev",
  "hellhole/HELLRAIN.LEV",
  "hellhole/Haunted.lev",
  "hellhole/HighRock.lev",
  "hellhole/Hotel 2.lev",
  "hellhole/Hotel.lev",
  "hellhole/Hq.lev",
  "hellhole/Ice Station.lev",
  "hellhole/Interlierobattles.lev",
  "hellhole/JIPEE.LEV",
  "hellhole/JUSSI2.LEV",
  "hellhole/Jnglenight.lev",
  "hellhole/JoeMac.lev",
  "hellhole/Joes2.lev",
  "hellhole/KUBLA.LEV",
  "hellhole/LEVaYTYS.LEV",
  "hellhole/Light.lev",
  "hellhole/MarcMaze.lev",
  "hellhole/Metro.lev",
  "hellhole/Mine.lev",
  "hellhole/Missile.lev",
  "hellhole/Mission6.lev",
  "hellhole/Mob.lev",
  "hellhole/Mofoc2.lev",
  "hellhole/MoonTown.lev",
  "hellhole/Moonbase.lev",
  "hellhole/Mountain_2.lev",
  "hellhole/Mt.Kewl.lev",
  "hellhole/NAABRID2.LEV",
  "hellhole/NUKESITE.lev",
  "hellhole/Neon.lev",
  "hellhole/Nfactory.lev",
  "hellhole/Nofly.lev",
  "hellhole/Paras2.lev",
  "hellhole/Pleasegod.lev",
  "hellhole/SPcsupp.lev",
  "hellhole/StarTown.lev",
  "hellhole/Supply depot.lev",
  "hellhole/TOWERS_1.LEV",
  "hellhole/The Base.lev",
  "hellhole/The D11-Base.lev",
  "hellhole/The arena.lev",
  "hellhole/ToraBora.lev",
  "hellhole/Training_1.lev",
  "hellhole/Tunnels.LEV",
  "hellhole/Twister.lev",
  "hellhole/UA-FORT.LEV",
  "hellhole/UA-METRO.LEV",
  "hellhole/VERSION.LEV",
  "hellhole/WW2.LEV",
  "hellhole/WWI.lev",
  "hellhole/Warehaus.lev",
  "hellhole/Warforts.lev",
  "hellhole/Wormhouse.lev",
  "hellhole/adelanto.lev",
  "hellhole/base1.lev",
  "hellhole/building_3.lev",
  "hellhole/castle2_1.lev",
  "hellhole/castle_2.lev",
  "hellhole/castle_3.lev",
  "hellhole/castlez.lev",
  "hellhole/cow.lev",
  "hellhole/crazy.lev",
  "hellhole/downtown.lev",
  "hellhole/esko.lev",
  "hellhole/gaper.lev",
  "hellhole/gard towers.lev",
  "hellhole/hornillo.lev",
  "hellhole/house2.lev",
  "hellhole/house_2.lev",
  "hellhole/impossbl.lev",
  "hellhole/jungle1.lev",
  "hellhole/keep.lev",
  "hellhole/kgivler2.lev",
  "hellhole/kgivler5.lev",
  "hellhole/klex.lev",
  "hellhole/lb_vulcn.lev",
  "hellhole/led.lev",
  "hellhole/lego.lev",
  "hellhole/lift.lev",
  "hellhole/mine_1.lev",
  "hellhole/mining.lev",
  "hellhole/misile.lev",
  "hellhole/mount ki.lev",
  "hellhole/munchoz.lev",
  "hellhole/neighbours.lev",
  "hellhole/oilraft.lev",
  "hellhole/place.lev",
  "hellhole/planetz.lev",
  "hellhole/podzemi.lev",
  "hellhole/prison.lev",
  "hellhole/psycho.lev",
  "hellhole/raid.lev",
  "hellhole/rebels.lev",
  "hellhole/rockar.lev",
  "hellhole/rockar3.lev",
  "hellhole/rooms.lev",
  "hellhole/scity.lev",
  "hellhole/scud.lev",
  "hellhole/serial.lev",
  "hellhole/sfactory.lev",
  "hellhole/shroomz.lev",
  "hellhole/splat.lev",
  "hellhole/storage.lev",
  "hellhole/stygg.lev",
  "hellhole/style.lev",
  "hellhole/sun.lev",
  "hellhole/takta.lev",
  "hellhole/treehaus.lev",
  "hellhole/tunnel.lev",
  "hellhole/tunnel_1.lev",
  "hellhole/ultrar.lev",
  "hellhole/ulvenstn.lev",
  "hellhole/war Bubbles of doom.lev",
  "hellhole/warfield.lev",
  "hellhole/weekyear.lev",
  "hellhole/winning cup.lev",
  "hellhole/winter.lev",
  "hellhole/winter_1.lev",
  "hellhole/wormatras.lev",
  "hellhole/aqueducts.lev",
  "hellhole/canyon.lev",
  "hellhole/gears.lev",
  "hellhole/illyria.lev",
  "hellhole/stronghold.lev",
  "hellhole/2worm4ya.lev",
  "hellhole/AfricanBonanza2.lev",
  "hellhole/Bunkier2.lev",
  "hellhole/COOL_1.LEV",
  "hellhole/Domes.lev",
  "hellhole/Dropzone.lev",
  "hellhole/DvDmanDT.lev",
  "hellhole/FORTISAR.LEV",
  "hellhole/Fort2.lev",
  "hellhole/LABRIN.LEV",
  "hellhole/Laardi2.lev",
  "hellhole/Labra.lev",
  "hellhole/LodeRun.LEV",
  "hellhole/LodeRun2.lev",
  "hellhole/Mountain_1.lev",
  "hellhole/MyLevel1.lev",
  "hellhole/MyLevel3.lev",
  "hellhole/Nfuel.lev",
  "hellhole/ROCKBASE.LEV",
  "hellhole/Ramm.lev",
  "hellhole/RealTime.lev",
  "hellhole/ST-1.lev",
  "hellhole/TheMine.lev",
  "hellhole/Warfare.lev",
  "hellhole/albatros.lev",
  "hellhole/amplify.lev",
  "hellhole/crazy_2.lev",
  "hellhole/face.lev",
  "hellhole/flame.lev",
  "hellhole/forrest.lev",
  "hellhole/galleon.lev",
  "hellhole/holy.lev",
  "hellhole/kulon-q8.lev",
  "hellhole/labyrint.lev",
  "hellhole/lavina.lev",
  "hellhole/lvl0003.lev",
  "hellhole/marocko6.lev",
  "hellhole/mega.lev",
  "hellhole/park8.lev",
  "hellhole/planetx.lev",
  "hellhole/qaverns.lev",
  "hellhole/rainyday.lev",
  "hellhole/serpent.lev",
  "hellhole/sludgestastion.lev",
  "hellhole/spikcavn.lev",
  "hellhole/tunnel2.lev",
  "hellhole/warloops.lev",
  "hellhole/warzone.lev",
  "hellhole/Bridge.lev",
  "hellhole/CHAOSI~T.LEV",
  "hellhole/Likwid.lev",
  "hellhole/BATTLEGR.LEV",
  "hellhole/SMB.lev",
  "hellhole/THE HUNTERS.lev",
  "hellhole/TOWER_2.LEV",
  "hellhole/Tomb.lev",
  "hellhole/baricade.lev",
  "hellhole/building_2.lev",
  "hellhole/circles.lev",
  "hellhole/lb_cmplx.lev",
  "hellhole/lb_infst.lev",
  "hellhole/lvl0005.lev",
  "hellhole/osamabase.lev",
  "hellhole/phobos.lev",
  "hellhole/qmark_1.lev",
  "hellhole/the cave.lev",
  "hellhole/tunnel2_1.lev",
  "hellhole/wormhole_1.lev",
  "hellhole/bloody.lev",
  "hellhole/Qrampage.lev"
]