[
  "hellhole/4squares.lev",
  "hellhole/DUEL.LEV",
  "hellhole/HUSK.LEV",
  "hellhole/Likwid.lev",
  "hellhole/MITH.lev",
  "hellhole/Saloon.lev",
  "hellhole/Simple2.lev",
  "hellhole/TEMPLE27.LEV",
  "hellhole/arena711.lev",
  "hellhole/arkham.lev",
  "hellhole/badger.lev",
  "hellhole/bj4wilq.lev",
  "hellhole/cathode.lev",
  "hellhole/fallout2.lev",
  "hellhole/izbla.lev",
  "hellhole/panther-s.lev",
  "hellhole/pokol2.lev",
  "hellhole/pyramid_1.lev",
  "hellhole/qflight.lev",
  "hellhole/tune-l.lev",
  "dsds/420.png",
  "dsds/asymcave.png",
  "dsds/eyes.png",
  "dsds/frog_cave_cave_only.png",
  "dsds/frog_only_frog.png",
  "dsds/spaceshipint.png",
  "dsds/space_one.png",
  "pilaf/axiom.lev",
  "pilaf/g3a.png",
  "pilaf/hole.png",
  "pilaf/oath.lev",
  "piebaron/PB_Vents_00.lev",
  "kangaroo/JDM.png",
  "kangaroo/asshat_temple.png",
  "kangaroo/blat2.png",
  "kangaroo/giger3.png",
  "kangaroo/gonad2.png",
  "kangaroo/got4.png",
  "kangaroo/guernica2.png",
  "kangaroo/jetmen1+bunnyhop.png",
  "kangaroo/poo_arena.png",
  "kangaroo/wtf2.png",
  "kangaroo/hexagonal.png",
  "kangaroo/yennefer.png",
  "kangaroo/koala.png",
  "kangaroo/vault_boy.png",
  "神風/cleanarena.png",
  "神風/despair.png",
  "神風/kaboom.png",
  "神風/meow.png",
  "神風/remake2duel2.png"
]
